{
   "accommodationFor":[
      "Student",
      "Part-time"
   ],
   "attributes":{
      "acAvailable":false,
      "accessToTerrace":false,
      "anyBigDrainNearby":false,
      "anyFoulSmell":true,
      "anyOtherPgRestrictions":[

      ],
      "attachedBathroom":false,
      "balconyAvailableOnEachFloor":true,
      "boysAllowed":true,
      "breakfastTimings":"Daily",
      "caretakerAvailable":false,
      "caretakerMeta":{
         "caretakerPerformsGuardDuty":true
      },
      "cctvAvailable":true,
      "channelPackAvailable":false,
      "cleaningServicesMeta":{
         "commonAreas":"Daily",
         "kitchen":"Daily",
         "room":"Every 3 days",
         "toilets":"Weekly"
      },
      "coffeeTeaServed":[
         "Morning",
         "Evening"
      ],
      "commonRoomAvailable":false,
      "cookingAllowed":true,
      "coolerAvailable":false,
      "dinnerTimings":"Weekends",
      "drinkingAllowed":true,
      "drinkingWaterAvailable":false,
      "dryingStandAvailable":false,
      "elevatorLiftAvailable":true,
      "foodServedThreeTimes":false,
      "foodStyle":[
         "South"
      ],
      "foodType":[
         "Veg",
         "Non-Veg"
      ],
      "fridgeAvailable":false,
      "girlsAllowed":true,
      "guestsAllowed":true,
      "guestsAllowedMeta":{
         "chargesForGuest":100
      },
      "gymAvailable":true,
      "hotWaterAvailable":true,
      "internetConnectionAvailable":true,
      "internetMeta":{
         "monthlyInternetCost":100
      },
      "ironingAllowed":true,
      "ironingAvailable":false,
      "is24HourWaterSupply":true,
      "laundryServicesMeta":{
         "bedSheetWashing":"Monthly",
         "laundry":"Bi-Weekly",
         "laundryCharges":100
      },
      "laundryWashingAvailable":true,
      "lunchTimings":"Weekdays",
      "microwaveAvailable":false,
      "nearByBigNames":[

      ],
      "nonVegAllowed":true,
      "noticePeriodInDays":10,
      "ownerOnPremises":true,
      "parkingAvailable":false,
      "pestControlServicesMeta":{
         "bedBugControl":"Yearly",
         "mosquitoRepellent":"Monthly",
         "pestControl":"Monthly"
      },
      "powerBackupAvailable":false,
      "securityGuardAvailable":false,
      "smokingAllowed":true,
      "studyTableAvailable":false,
      "tableAvailable":false,
      "timeRestriction":true,
      "timeRestrictionMeta":{
         "entryAllowedTill":"11:13 pm"
      },
      "totalNumberOfFloors":5,
      "tvAvailable":false,
      "visitorBookAvailable":true,
      "visitorMeta":{
         "visitorBookType":"Digital"
      },
      "washingMachineAvailable":true,
      "waterProblem":true,
      "waterProblemMeta":{
         "noOfTimeTankerVisits":6
      }
   },
   "bathroom":{
      "attributes":{
         "bathroomMeta":{
            "toiletType":"Toilet"
         },
         "exhaustFan":false,
         "flooringType":"Tile",
         "geyser":true,
         "mirror":true,
         "shower":false,
         "ventilation":true,
         "washBasin":false,
         "windowOpening":"Inside"
      },
      "photos":[

      ]
   },
   "buildingDetails":{
      "buildingName":"test",
      "city":"test",
      "coordinates":{
         "lat":0,
         "lng":0
      },
      "houseNo":"22/1",
      "landMark":"test",
      "locality":"test",
      "pincode":"600000",
      "roadName":"test",
      "subLocality":"test"
   },
   "feedback":{
      "cleanlinessRatings":5,
      "complainResolutionRatings":3.5,
      "firstImpressionRatings":0,
      "foodHygieneRatings":3.5,
      "foodQualityRatings":3,
      "internetRatings":3.5,
      "outsideCleanlinessRatings":3.5,
      "ownerLenient":[
         "Fine for late rent",
         "Drinking",
         "Late Entry",
         "Smoking"
      ],
      "securityRatings":3
   },
   "kitchen":{
      "feedback":{
         "firstImpressionRatings":3
      },
      "photos":[

      ]
   },
   "leaseDetails":{
      "endDate":0,
      "onLease":false,
      "startDate":0
   },
   "people":[
      {
         "userId":"29734923423423424",
         "isManager":true
      }
   ],
   "pgGender":[
      "Male",
      "Female"
   ],
   "pgLicenceDetails":{
      "appliedOn":0,
      "status":"Planning To Apply"
   },
   "pgName":"test pg name",
   "pgType":"Home",
   "photos":[

   ],
   "sharingInfo":[
      {
         "attributes":{
            "acAvailable":false,
            "attachedBathroom":false,
            "balconyAttached":false,
            "bedsideRackAvailable":false,
            "chairAvailable":false,
            "coolerAvailable":false,
            "cupboardAvailable":false,
            "cupboards":[

            ],
            "curtainsAvailable":false,
            "dressingTableAvailable":true,
            "dressingTableMeta":{
               "dressingTableMirror":true,
               "dressingTableShelf":false
            },
            "fridgeAvailable":false,
            "isFurnished":false,
            "lampsAvailable":true,
            "laundryBagAvailable":false,
            "mirror":false,
            "seperateLockerAvailable":true,
            "shoeRackAvailable":true,
            "sofaAvailable":true,
            "stoolAvailable":false,
            "studyTableAvailable":false,
            "tableAvailable":false,
            "tvAvailable":false,
            "windows":[

            ],
            "windowsAvailable":false
         },
         "availableDate":0,
         "bedInfo":[

         ],
         "deposit":50000,
         "feedback":{
            "firstImpressionRatings":3,
            "paintConditionRatings":4
         },
         "maintainence":1000,
         "photos":[

         ],
         "rent":10000,
         "sharingType":1,
         "totalBeds":100,
         "totalBedsAvailable":0,
         "totalBedsOccupied":50
      }
   ],
   "serviceTax":{
      "appliedOn":0,
      "status":"No Plan"
   },
   "totalBeds":500,
   "totalRooms":250
}
